@startuml

participant "Malmo:\nagent_host" as malmo
participant MalmoConnector as conn
participant Command as command
participant Character as char
participant "Character:\nCognitiveCycleWorker" as worker
participant "Goal\nManager" as gr
participant "Goal\nPriority" as priority
participant "JSHOP2" as jshop2

group init
    char->char: init()
    activate char
    char->char: init_memory()
    char->gr: init()
    activate gr
    activate worker
    gr->jshop2: init()
    activate jshop2
    char->conn: init()
    activate conn
    activate command
    conn->malmo: init()
    activate malmo
    char->conn: start_mission()
    conn->malmo: start_mission()
    char->worker: start()
    deactivate gr
    deactivate jshop2
end


@enduml